<?xml version="1.0" encoding="utf-8"?>
<!-- Generator: Adobe Illustrator 16.0.0, SVG Export Plug-In . SVG Version: 6.00 Build 0)  -->
<!DOCTYPE svg PUBLIC "-//W3C//DTD SVG 1.1//EN" "http://www.w3.org/Graphics/SVG/1.1/DTD/svg11.dtd">
<svg version="1.1" id="Layer_1" xmlns="http://www.w3.org/2000/svg" xmlns:xlink="http://www.w3.org/1999/xlink" x="0px" y="0px"
	 width="29.562px" height="32.452px" viewBox="0 0 29.562 32.452" enable-background="new 0 0 29.562 32.452" xml:space="preserve">
<g>
	<path d="M18.57,16.397c0.868-0.74,1.43-1.827,1.43-3.054c0-2.223-1.809-4.031-4.031-4.031s-4.031,1.809-4.031,4.031
		c0,1.227,0.562,2.313,1.43,3.054c-3.066,0.877-5.274,3.25-5.274,6.042v0.844h15.751v-0.844
		C23.844,19.648,21.636,17.274,18.57,16.397z M15.969,10.812c1.396,0,2.531,1.136,2.531,2.531s-1.136,2.531-2.531,2.531
		s-2.531-1.136-2.531-2.531S14.573,10.812,15.969,10.812z M9.881,21.595c0.523-2.201,3.054-3.875,6.088-3.875
		s5.564,1.674,6.088,3.875H9.881z"/>
	<path d="M24.923,0H7.027c-2.558,0-4.64,2.082-4.64,4.64v0.673H0.75C0.336,5.312,0,5.648,0,6.062s0.336,0.75,0.75,0.75h1.637v5.292
		H0.75c-0.414,0-0.75,0.336-0.75,0.75s0.336,0.75,0.75,0.75h1.637v5.292H0.75c-0.414,0-0.75,0.336-0.75,0.75s0.336,0.75,0.75,0.75
		h1.637v5.292H0.75c-0.414,0-0.75,0.336-0.75,0.75s0.336,0.75,0.75,0.75h1.637v0.625c0,2.558,2.082,4.64,4.64,4.64h17.896
		c2.558,0,4.64-2.082,4.64-4.64V4.64C29.562,2.082,27.481,0,24.923,0z M28.062,27.812c0,1.731-1.408,3.14-3.14,3.14H7.027
		c-1.731,0-3.14-1.408-3.14-3.14v-0.625h1.488c0.414,0,0.75-0.336,0.75-0.75s-0.336-0.75-0.75-0.75H3.887v-5.292h1.488
		c0.414,0,0.75-0.336,0.75-0.75s-0.336-0.75-0.75-0.75H3.887v-5.292h1.488c0.414,0,0.75-0.336,0.75-0.75s-0.336-0.75-0.75-0.75
		H3.887V6.812h1.488c0.414,0,0.75-0.336,0.75-0.75s-0.336-0.75-0.75-0.75H3.887V4.64c0-1.731,1.408-3.14,3.14-3.14h17.896
		c1.731,0,3.14,1.408,3.14,3.14V27.812z"/>
</g>
</svg>
