<?xml version="1.0" encoding="utf-8"?>
<!-- Generator: Adobe Illustrator 16.0.0, SVG Export Plug-In . SVG Version: 6.00 Build 0)  -->
<!DOCTYPE svg PUBLIC "-//W3C//DTD SVG 1.1//EN" "http://www.w3.org/Graphics/SVG/1.1/DTD/svg11.dtd">
<svg version="1.1" id="Layer_1" xmlns="http://www.w3.org/2000/svg" xmlns:xlink="http://www.w3.org/1999/xlink" x="0px" y="0px"
	 width="37.541px" height="35.482px" viewBox="0 0 37.541 35.482" enable-background="new 0 0 37.541 35.482" xml:space="preserve">
<path d="M37.124,0.188C36.862,0,36.527-0.051,36.221,0.053l-17.45,5.89L1.32,0.053C1.015-0.051,0.679,0,0.417,0.188
	C0.155,0.375,0,0.678,0,1v27.484c0,0.429,0.274,0.81,0.68,0.947l17.771,5.998c0.002,0.001,0.005,0,0.007,0.001
	c0.102,0.034,0.207,0.052,0.313,0.052s0.211-0.018,0.313-0.052c0.002,0,0.004,0,0.007-0.001l17.77-5.998
	c0.407-0.137,0.68-0.518,0.68-0.947V1C37.541,0.678,37.385,0.375,37.124,0.188z M2,2.393l15.771,5.323v25.374L2,27.767V2.393z
	 M35.541,27.767l-15.77,5.323V7.716l15.77-5.323V27.767z"/>
</svg>
